id,password,last_login,is_superuser,username,first_name,last_name,email,is_staff,is_active,date_joined
14,pbkdf2_sha256$120000$5EoLicomQyyB$g+Bo9iRm4PhVur+E1l0U27RarXHuuADpLyr6fNnz7S4=,"2018-09-19 12:27:59.234509",1,admin,admin,admin,admin@admin,1,1,"2018-09-12 11:51:13.000000"
19,pbkdf2_sha256$120000$qOgkrW5Nnt05$ZsNyjF18REjGE9+RKU4KSbq6gKroN8Gyr+z3Zq7x7GY=,"2018-09-19 12:57:06.472826",0,Havinhem,Marion,Ketchum,MarionRKetchum@jourrapide.com,0,1,"2018-09-19 12:43:19.276743"
20,pbkdf2_sha256$120000$4lA0KZIeQnPJ$bVwA60QgZZkhFP3/6ny8ubjR5WcWNLs9vHsgC/1mG0g=,"2018-09-19 12:57:06.472826",0,Trailtandes,Byron ,Shepherd,ByronDShepherd@dayrep.com,0,1,"2018-09-19 12:46:07.413982"
21,pbkdf2_sha256$120000$ihQFJw5D5njT$QAo9/5TAgyWpxdoms/QE1fTO735jqqGbswAI1CbfCig=,"2018-09-19 12:57:06.472826",0,Brich1945,Joshua ,Mitchell,JoshuaKMitchell@dayrep.com,0,1,"2018-09-19 12:48:41.869334"
22,pbkdf2_sha256$120000$2CuJVL7LP2Vq$ZdufTojBacQ6ecwylg1R3uqkqAED3HdDQ62NOF1H71Q=,"2018-09-19 12:57:06.472826",0,Andand,"William ",Clark,WilliamJClark@jourrapide.com,0,1,"2018-09-19 12:50:00.374293"
23,pbkdf2_sha256$120000$Xeja72eZg9Kh$unRQpgljOVmRCMayef7k6yBqJoB2oBH7j3+1Cpfyn9o=,"2018-09-19 12:57:06.472826",0,Thatur,Vivian ,Swisher,VivianDSwisher@armyspy.com,0,1,"2018-09-19 12:50:58.098352"
